{
  "posts": [
    {
      "id": 1,
      "title": "welcome to the new blog",
      "body": "asdasda asdasdaasdasdaasdasdaasdasda asdasda asdasdaasdasdaasdasdaasdasda asdasda asdasdaasdasdaasdasdaasdasda asdasda asdasdaasdasdaasdasdaasdasda asdasda asdasdaasdasdaasdasdaasdasda asdasda asdasdaasdasdaasdasdaasdasda",
      "tags": [
        "webdev",
        "coding",
        "news"
      ]
    },
    {
      "id": 2,
      "title": "new blog",
      "body": "asdasda asdasdaasdasdaasdasdaasdasda asdasda asdasdaasdasdaasdasdaasdasda asdasda asdasdaasdasdaasdasdaasdasda asdasda asdasdaasdasdaasdasdaasdasda asdasda asdasdaasdasdaasdasdaasdasda asdasda asdasdaasdasdaasdasdaasdasda",
      "tags": [
        "css",
        "webdev",
        "coding"
      ]
    },
    {
      "title": "test",
      "body": "test",
      "tags": [
        "tasd",
        "asd"
      ],
      "id": 3
    },
    {
      "title": "test",
      "body": "test",
      "tags": [
        "tasd",
        "asd"
      ],
      "id": 4
    },
    {
      "title": "asd",
      "body": "asd",
      "tags": [],
      "id": 5
    }
  ]
}